{
  "page": 1,
  "total_results": 10000,
  "total_pages": 500,
  "results": [
    {
      "original_name": "The Mandalorian",
      "genre_ids": [
        10759,
        10765
      ],
      "name": "The Mandalorian",
      "popularity": 743.423,
      "origin_country": [
        "US"
      ],
      "vote_count": 109,
      "first_air_date": "2019-11-12",
      "backdrop_path": "/o7qi2v4uWQ8bZ1tW3KI0Ztn2epk.jpg",
      "original_language": "en",
      "id": 82856,
      "vote_average": 7.6,
      "overview": "Set after the fall of the Empire and before the emergence of the First Order, we follow the travails of a lone gunfighter in the outer reaches of the galaxy far from the authority of the New Republic.",
      "poster_path": "/BbNvKCuEF4SRzFXR16aK6ISFtR.jpg"
    },
    {
      "original_name": "Rick and Morty",
      "genre_ids": [
        16,
        35,
        10759,
        10765
      ],
      "name": "Rick and Morty",
      "popularity": 513.376,
      "origin_country": [
        "US"
      ],
      "vote_count": 1512,
      "first_air_date": "2013-12-02",
      "backdrop_path": "/mzzHr6g1yvZ05Mc7hNj3tUdy2bM.jpg",
      "original_language": "en",
      "id": 60625,
      "vote_average": 8.6,
      "overview": "Rick is a mentally-unbalanced but scientifically-gifted old man who has recently reconnected with his family. He spends most of his time involving his young grandson Morty in dangerous, outlandish adventures throughout space and alternate universes. Compounded with Morty's already unstable family life, these events cause Morty much distress at home and school.",
      "poster_path": "/qJdfO3ahgAMf2rcmhoqngjBBZW1.jpg"
    },
    {
      "original_name": "Arrow",
      "genre_ids": [
        80,
        18,
        9648,
        10759
      ],
      "name": "Arrow",
      "popularity": 255.466,
      "origin_country": [
        "US"
      ],
      "vote_count": 2845,
      "first_air_date": "2012-10-10",
      "backdrop_path": "/dXTyVDTIgeByvUOUEiHjbi8xX9A.jpg",
      "original_language": "en",
      "id": 1412,
      "vote_average": 5.8,
      "overview": "Spoiled billionaire playboy Oliver Queen is missing and presumed dead when his yacht is lost at sea. He returns five years later a changed man, determined to clean up the city as a hooded vigilante armed with a bow.",
      "poster_path": "/gKG5QGz5Ngf8fgWpBsWtlg5L2SF.jpg"
    },
    {
      "original_name": "4 Blocks",
      "genre_ids": [
        18
      ],
      "name": "4 Blocks",
      "popularity": 192.709,
      "origin_country": [
        "DE"
      ],
      "vote_count": 41,
      "first_air_date": "2017-05-08",
      "backdrop_path": "/jEdce7g6VZHMoJ7DANX8NFQkVAW.jpg",
      "original_language": "de",
      "id": 71641,
      "vote_average": 5.1,
      "overview": "Based in Neukölln, Berlin Toni manages the daily business of dealing with the Arabic gangs and ends up wanting to leave his old life behind for his family, but as expected, its never that simple.",
      "poster_path": "/jVObyxtNxuPbG5czuKvm7pW56EV.jpg"
    },
    {
      "original_name": "His Dark Materials",
      "genre_ids": [
        18,
        10765
      ],
      "name": "His Dark Materials",
      "popularity": 203.14,
      "origin_country": [
        "GB"
      ],
      "vote_count": 65,
      "first_air_date": "2019-11-03",
      "backdrop_path": "/9yKCJTOh9m3Lol2RY3kw99QPH6x.jpg",
      "original_language": "en",
      "id": 68507,
      "vote_average": 7.9,
      "overview": "Lyra is an orphan who lives in a parallel universe in which science, theology and magic are entwined. Lyra's search for a kidnapped friend uncovers a sinister plot involving stolen children, and turns into a quest to understand a mysterious phenomenon called Dust. She is later joined on her journey by Will, a boy who possesses a knife that can cut windows between worlds. As Lyra learns the truth about her parents and her prophesied destiny, the two young people are caught up in a war against celestial powers that ranges across many worlds.",
      "poster_path": "/xOjRNnQw5hqR1EULJ2iHkGwJVA4.jpg"
    },
    {
      "original_name": "The Simpsons",
      "genre_ids": [
        16,
        35
      ],
      "name": "The Simpsons",
      "popularity": 178.517,
      "origin_country": [
        "US"
      ],
      "vote_count": 2248,
      "first_air_date": "1989-12-17",
      "backdrop_path": "/f5uNbUC76oowt5mt5J9QlqrIYQ6.jpg",
      "original_language": "en",
      "id": 456,
      "vote_average": 7.2,
      "overview": "Set in Springfield, the average American town, the show focuses on the antics and everyday adventures of the Simpson family; Homer, Marge, Bart, Lisa and Maggie, as well as a virtual cast of thousands. Since the beginning, the series has been a pop culture icon, attracting hundreds of celebrities to guest star. The show has also made name for itself in its fearless satirical take on politics, media and American life in general.",
      "poster_path": "/yTZQkSsxUFJZJe67IenRM0AEklc.jpg"
    },
    {
      "original_name": "The Flash",
      "genre_ids": [
        18,
        10765
      ],
      "name": "The Flash",
      "popularity": 175.823,
      "origin_country": [
        "US"
      ],
      "vote_count": 3006,
      "first_air_date": "2014-10-07",
      "backdrop_path": "/6ZdQTBy20HzWudZthAV7NkZWfIb.jpg",
      "original_language": "en",
      "id": 60735,
      "vote_average": 6.7,
      "overview": "After a particle accelerator causes a freak storm, CSI Investigator Barry Allen is struck by lightning and falls into a coma. Months later he awakens with the power of super speed, granting him the ability to move through Central City like an unseen guardian angel. Though initially excited by his newfound powers, Barry is shocked to discover he is not the only \"meta-human\" who was created in the wake of the accelerator explosion -- and not everyone is using their new powers for good. Barry partners with S.T.A.R. Labs and dedicates his life to protect the innocent. For now, only a few close friends and associates know that Barry is literally the fastest man alive, but it won't be long before the world learns what Barry Allen has become...The Flash.",
      "poster_path": "/wHa6KOJAoNTFLFtp7wguUJKSnju.jpg"
    },
    {
      "original_name": "Supernatural",
      "genre_ids": [
        18,
        9648,
        10765
      ],
      "name": "Supernatural",
      "popularity": 169.314,
      "origin_country": [
        "US"
      ],
      "vote_count": 2052,
      "first_air_date": "2005-09-13",
      "backdrop_path": "/o9OKe3M06QMLOzTl3l6GStYtnE9.jpg",
      "original_language": "en",
      "id": 1622,
      "vote_average": 7.4,
      "overview": "When they were boys, Sam and Dean Winchester lost their mother to a mysterious and demonic supernatural force. Subsequently, their father raised them to be soldiers. He taught them about the paranormal evil that lives in the dark corners and on the back roads of America ... and he taught them how to kill it. Now, the Winchester brothers crisscross the country in their '67 Chevy Impala, battling every kind of supernatural threat they encounter along the way. ",
      "poster_path": "/KoYWXbnYuS3b0GyQPkbuexlVK9.jpg"
    },
    {
      "original_name": "Fear the Walking Dead",
      "genre_ids": [
        18,
        10759
      ],
      "name": "Fear the Walking Dead",
      "popularity": 137.785,
      "origin_country": [
        "US"
      ],
      "vote_count": 1093,
      "first_air_date": "2015-08-23",
      "backdrop_path": "/7r4FieFH6Eh6S55hi8c9LOiFENg.jpg",
      "original_language": "en",
      "id": 62286,
      "vote_average": 6.3,
      "overview": "What did the world look like as it was transforming into the horrifying apocalypse depicted in \"The Walking Dead\"? This spin-off set in Los Angeles, following new characters as they face the beginning of the end of the world, will answer that question.",
      "poster_path": "/lZMb3R3e5vqukPbeDMeyYGf2ZNG.jpg"
    },
    {
      "original_name": "Grey's Anatomy",
      "genre_ids": [
        18
      ],
      "name": "Grey's Anatomy",
      "popularity": 116.421,
      "origin_country": [
        "US"
      ],
      "vote_count": 1126,
      "first_air_date": "2005-03-27",
      "backdrop_path": "/edmk8xjGBsYVIf4QtLY9WMaMcXZ.jpg",
      "original_language": "en",
      "id": 1416,
      "vote_average": 6.4,
      "overview": "Follows the personal and professional lives of a group of doctors at Seattle’s Grey Sloan Memorial Hospital.",
      "poster_path": "/jnsvc7gCKocXnrTXF6p03cICTWb.jpg"
    }
  ]
}